{
 "name": "nearwin",
 "image_settings": {
  "name": "nearwin",
  "settings_array": [
   {
    "name": "nearwin",
    "image_filename": "near_15.jpg",
    "out_px_width": -1,
    "out_px_height": 3000,
    "out_mm_width": -1,
    "out_mm_height": 500,
    "filters": [
     {
      "name": "BlackAndWhite_",
      "type": "BlackAndWhite_",
      "params": []
     },
     {
      "name": "Map_50_200",
      "type": "Map_",
      "params": [
       40,
       225
      ]
     },
     {
      "name": "Blur_50_",
      "type": "Blur_",
      "params": [
       1
      ]
     }
    ]
   },
   {
    "name": "nearwin",
    "image_filename": "near_15.jpg",
    "out_px_width": -1,
    "out_px_height": 3000,
    "out_mm_width": -1,
    "out_mm_height": 500,
    "filters": [
     {
      "name": "BlackAndWhite_",
      "type": "BlackAndWhite_",
      "params": []
     },
     {
      "name": "Map_50_200",
      "type": "Map_",
      "params": [
       40,
       200
      ]
     },
     {
      "name": "Blur_50_",
      "type": "Blur_",
      "params": [
       3
      ]
     }
    ]
   }
  ]
 },
 "image_settings_name": "",
 "nail_placer_settings": {
  "name": "Default",
  "min_dist_to_next_nail": 6.5,
  "max_dist_to_next_nail": 10,
  "border_disable_size_in_mm": 25,
  "default_nail_micro_offset_distance_in_mm": 0,
  "default_micro_offset_calculate_diameter_in_mm": 0,
  "default_micro_offset_calculate_thickness_in_mm": 0,
  "cut_color_level_for_filling": 248,
  "default_nail_prototype_name": "starfix_12_20_200",
  "opacity_blur_kernel": 0,
  "calculation_opacity_min": 0,
  "calculation_opacity_max": 255,
  "use_dynamic_disable_radius_for_contours": false,
  "use_dynamic_disable_radius_for_infill": true,
  "contours_iterations": [
   {
    "name": "default",
    "nail_prototype_name": "starfix_12_20_200",
    "canny_blur_kernel_size": 25,
    "canny_lower_edge": -1,
    "canny_higher_edge": -1,
    "find_corners_max_corners": 0,
    "find_corners_quality_level": 0.01,
    "contours_intensity": 27,
    "contours_thickness": 1,
    "nail_micro_offset_distance_in_mm": 2,
    "micro_offset_calculate_diameter_in_mm": 1.3,
    "micro_offset_calculate_thickness_in_mm": 0.3
   },
   {
    "name": "default",
    "nail_prototype_name": "starfix_12_20_200",
    "canny_blur_kernel_size": 23,
    "canny_lower_edge": -1,
    "canny_higher_edge": -1,
    "find_corners_max_corners": 0,
    "find_corners_quality_level": 0.01,
    "contours_intensity": 27,
    "contours_thickness": 1,
    "nail_micro_offset_distance_in_mm": 2.5,
    "micro_offset_calculate_diameter_in_mm": 1.3,
    "micro_offset_calculate_thickness_in_mm": 0.5
   },
   {
    "name": "default",
    "nail_prototype_name": "starfix_12_20_200",
    "canny_blur_kernel_size": 19,
    "canny_lower_edge": -1,
    "canny_higher_edge": -1,
    "find_corners_max_corners": 0,
    "find_corners_quality_level": 0.01,
    "contours_intensity": 50,
    "contours_thickness": 1,
    "nail_micro_offset_distance_in_mm": 2.5,
    "micro_offset_calculate_diameter_in_mm": 1.3,
    "micro_offset_calculate_thickness_in_mm": 0.5
   },
   {
    "name": "default",
    "nail_prototype_name": "starfix_12_20_200",
    "canny_blur_kernel_size": 15,
    "canny_lower_edge": -1,
    "canny_higher_edge": -1,
    "find_corners_max_corners": 0,
    "find_corners_quality_level": 0.01,
    "contours_intensity": 27,
    "contours_thickness": 1,
    "nail_micro_offset_distance_in_mm": 2.5,
    "micro_offset_calculate_diameter_in_mm": 1.3,
    "micro_offset_calculate_thickness_in_mm": 0.5
   },
   {
    "name": "default",
    "nail_prototype_name": "starfix_12_20_200",
    "canny_blur_kernel_size": 13,
    "canny_lower_edge": -1,
    "canny_higher_edge": -1,
    "find_corners_max_corners": 0,
    "find_corners_quality_level": 0.01,
    "contours_intensity": 27,
    "contours_thickness": 1,
    "nail_micro_offset_distance_in_mm": 2.5,
    "micro_offset_calculate_diameter_in_mm": 1.3,
    "micro_offset_calculate_thickness_in_mm": 0.5
   },
   {
    "name": "default",
    "nail_prototype_name": "starfix_12_20_200",
    "canny_blur_kernel_size": 9,
    "canny_lower_edge": -1,
    "canny_higher_edge": -1,
    "find_corners_max_corners": 0,
    "find_corners_quality_level": 0.01,
    "contours_intensity": 27,
    "contours_thickness": 1,
    "nail_micro_offset_distance_in_mm": 2.5,
    "micro_offset_calculate_diameter_in_mm": 1.3,
    "micro_offset_calculate_thickness_in_mm": 0.5
   },
   {
    "name": "default",
    "nail_prototype_name": "starfix_12_20_200",
    "canny_blur_kernel_size": 7,
    "canny_lower_edge": -1,
    "canny_higher_edge": -1,
    "find_corners_max_corners": 0,
    "find_corners_quality_level": 0.01,
    "contours_intensity": 27,
    "contours_thickness": 1,
    "nail_micro_offset_distance_in_mm": 2.5,
    "micro_offset_calculate_diameter_in_mm": 1.3,
    "micro_offset_calculate_thickness_in_mm": 0.5
   },
   {
    "name": "default",
    "nail_prototype_name": "starfix_12_20_200",
    "canny_blur_kernel_size": 5,
    "canny_lower_edge": -1,
    "canny_higher_edge": -1,
    "find_corners_max_corners": 0,
    "find_corners_quality_level": 0.01,
    "contours_intensity": 27,
    "contours_thickness": 1,
    "nail_micro_offset_distance_in_mm": 2.5,
    "micro_offset_calculate_diameter_in_mm": 1.3,
    "micro_offset_calculate_thickness_in_mm": 0.5
   },
   {
    "name": "default",
    "nail_prototype_name": "starfix_12_20_200",
    "canny_blur_kernel_size": 3,
    "canny_lower_edge": -1,
    "canny_higher_edge": -1,
    "find_corners_max_corners": 0,
    "find_corners_quality_level": 0.01,
    "contours_intensity": 27,
    "contours_thickness": 1,
    "nail_micro_offset_distance_in_mm": 2.5,
    "micro_offset_calculate_diameter_in_mm": 1.3,
    "micro_offset_calculate_thickness_in_mm": 0.5
   },
   {
    "name": "default",
    "nail_prototype_name": "starfix_12_20_200",
    "canny_blur_kernel_size": 1,
    "canny_lower_edge": -1,
    "canny_higher_edge": -1,
    "find_corners_max_corners": 0,
    "find_corners_quality_level": 0.01,
    "contours_intensity": 27,
    "contours_thickness": 1,
    "nail_micro_offset_distance_in_mm": 2.5,
    "micro_offset_calculate_diameter_in_mm": 1.3,
    "micro_offset_calculate_thickness_in_mm": 0.5
   }
  ],
  "callback_type": "WithoutDelay"
 },
 "nail_placer_algorithm_name": "",
 "material": {
  "name": "plywood_square_300",
  "width": 500,
  "height": 500,
  "thickness": 9,
  "type": "kPlywood",
  "weight": 300,
  "max_drill_depth": 7,
  "curvature_in_mm": 4
 },
 "material_name": "",
 "gcode_settings": {
  "name": "default",
  "movements_drill_xy_speed": 3000,
  "movements_to_nail_xy_speed": 3000,
  "drill_z_speed": 190,
  "push_z_nail_speed": 80,
  "z_move_speed": 800,
  "string_move_speed": 3000,
  "arc_move_speed": 3000,
  "drill_hole_visits_count": 1,
  "x_offset": 0,
  "y_offset": 0,
  "max_string_z_above_material": 11,
  "z_adjustment_algorithm_name": "neighbours_average",
  "neighbours_pull_size": 5,
  "winding_height_step": 0.39,
  "winding_height_gap": 0.32,
  "min_string_z_above_material": 3,
  "fragmentation_segments_per_circle": 3
 },
 "gcode_settings_name": "",
 "machine_settings": {
  "name": "ninja_small_machine",
  "xy_movement_max_speed": 3000,
  "xy_movement_default_speed": 3000,
  "xy_default_accelerations": 400,
  "workspace_x_size": 0,
  "workspace_y_size": 0,
  "minimum_nail_to_nail_drill_distance": 0,
  "minimum_nail_to_nail_press_distance": 0,
  "minimum_nail_to_nail_string_distance": 0,
  "z_movement_max_speed": 900,
  "z_movement_default_speed": 700,
  "z_default_acceleration": 200,
  "precision": 0.01,
  "clip": {
   "name": "5x10_16mm_3.5mm",
   "nails_in_row_number": 5,
   "nails_in_column_number": 10,
   "row_interval": 16,
   "column_interval": 16,
   "z_height": 3.5
  },
  "nail_putter": {
   "name": "ninja_small_nail_putter",
   "type": "kNailDriver",
   "diameter": 2.95
  },
  "drill": {
   "name": "ninja_small_drill",
   "type": "kDrill",
   "diameter": 2.95
  },
  "string_tensioner": {
   "name": "ninja_small_string_tensioner",
   "type": "kStringTensioner",
   "diameter": 2.95
  }
 },
 "machine_settings_name": "",
 "canvas_line_settings": {
  "name": "one_string_with_shadow",
  "settings_array": [
   {
    "name": "adaptive_string_with_shadow",
    "shadow_thickness_multiplier": 6,
    "shadow_intensity_divisor": 3,
    "shadow_blur_kernel_size": 5,
    "intensity": 120,
    "thickness": 1,
    "calculation_intensity_min": 40,
    "calculation_intensity_max": 200,
    "calculation_opacity_min": 40,
    "calculation_opacity_max": 200,
    "calculation_shadow_thickness_multiplier_min": 3,
    "calculation_shadow_thickness_multiplier_max": 5,
    "blur_name": "Gaussian"
   }
  ]
 },
 "canvas_line_settings_name": "",
 "string_placer_settings": {
  "name": "Greedy",
  "settings_array": [
   {
    "name": "Greedy",
    "algorithm_name": "",
    "image_metric_name": "Absolute",
    "callback_type": "WithoutDelay",
    "opacity_blur_kernel": 0,
    "total_line_segments_count": 10000,
    "max_strings_on_nail": 14,
    "nail_pull_size": 23,
    "log_every": 200,
    "do_log_callback": true,
    "recently_used_nails_count": 2,
    "recently_used_nails_penalty": 3,
    "new_nail_gain": 6,
    "distance_pow": 1,
    "contour_iterations_count": 0,
    "nail_seek_radius": 0,
    "max_contours_count": 0,
    "contours": [],
    "beam_block_number": 3,
    "beam_depth": 3,
    "beam_real_profit_ratio": 0.35,
    "random_seed": 0
   }
  ]
 },
 "string_placer_settings_name": ""
}
